uvm/CNN_UVM.sim/sim_1/behav/xsim/dump.vcd
$date
   Tue Jul 29 19:35:28 2025
$end
$version
  2020.2
$end
$timescale
  1ps
$end
$scope module tb_top $end
$var reg 1 ! clk $end
$var reg 1 " rst_n $end
$scope module apb_vif $end
$var reg 1 # PCLK $end
$var reg 1 $ PRESETN $end
$var reg 32 % PADDR [31:0] $end
$var reg 1 & PSEL $end
$var reg 1 ' PENABLE $end
$var reg 1 ( PWRITE $end
$var reg 32 ) PWDATA [31:0] $end
$var reg 1 * PREADY $end
$var reg 32 + PRDATA [31:0] $end
$upscope $end
$scope module cnn_vif $end
$var reg 1 , clk $end
$var reg 1 - rst_n $end
$var reg 16 . cnn_out [15:0] $end
$upscope $end
$scope module dut $end
$var wire 32 / PADDR [31:0] $end
$var wire 1 0 PSEL $end
$var wire 1 1 PENABLE $end
$var wire 1 2 PWRITE $end
$var wire 32 3 PWDATA [31:0] $end
$var wire 1 4 PREADY $end
$var wire 32 5 PRDATA [31:0] $end
$var wire 1 6 PSLVERR $end
$var wire 1 7 PCLK $end
$var wire 1 8 PRESETN $end
$var wire 16 9 O_OT_KERNEL_ACC [15:0] $end
$var wire 8 : O_CNN_WEIGHT [7:0] $end
$var wire 8 ; O_IN_FMAP [7:0] $end
$var wire 1 < O_IN_VALID $end
$scope module apb3_reg_0 $end
$var wire 30 = PADDR [31:2] $end
$var wire 1 0 PSEL $end
$var wire 1 1 PENABLE $end
$var wire 1 2 PWRITE $end
$var wire 32 3 PWDATA [31:0] $end
$var wire 1 4 PREADY $end
$var wire 32 5 PRDATA [31:0] $end
$var wire 1 6 PSLVERR $end
$var wire 1 7 PCLK $end
$var wire 1 8 PRESETN $end
$var wire 8 : O_CNN_WEIGHT [7:0] $end
$var wire 8 ; O_IN_FMAP [7:0] $end
$var wire 1 < O_IN_VALID $end
$var wire 1 > iwen $end
$var wire 1 ? iren $end
$var wire 30 @ paddr [31:2] $end
$var wire 32 A pwdata [31:0] $end
$var wire 1 B cnn_weight_wen $end
$var wire 1 C in_valid_wen $end
$var wire 1 D in_fmap_wen $end
$var wire 1 E cnn_weight_ren $end
$var wire 1 F in_valid_ren $end
$var wire 1 G in_fmap_ren $end
$var wire 8 H next_cnn_weight [7:0] $end
$var wire 8 I next_in_fmap [7:0] $end
$var wire 1 J next_in_valid $end
$var reg 32 K reg_cnn_weight [31:0] $end
$var reg 32 L reg_in_fmap [31:0] $end
$var reg 32 M reg_in_valid [31:0] $end
$var wire 5 N isel [4:0] $end
$var reg 32 O prdata [31:0] $end
$var wire 1 P error $end
$upscope $end
$scope module my_ip_0 $end
$var wire 1 7 clk $end
$var wire 1 8 reset_n $end
$var wire 200 Q i_cnn_weight [199:0] $end
$var wire 1 < i_in_valid $end
$var wire 200 R i_in_fmap [199:0] $end
$var wire 1 S o_ot_valid $end
$var wire 21 T o_ot_kernel_acc [20:0] $end
$var wire 3 U ce [2:0] $end
$var reg 3 V r_valid [2:0] $end
$var wire 400 W mul [399:0] $end
$var reg 400 X r_mul [399:0] $end
$var reg 21 Y acc_kernel [20:0] $end
$var reg 21 Z r_acc_kernel [20:0] $end
$var integer 32 [ acc_idx $end
$var integer 32 \ j $end
$var integer 32 ] k $end
$var parameter 32 ^ KX [31:0] $end
$var parameter 32 _ KY [31:0] $end
$var parameter 32 ` I_F_BW [31:0] $end
$var parameter 32 a W_BW [31:0] $end
$var parameter 32 b B_BW [31:0] $end
$var parameter 32 c AK_BW [31:0] $end
$var parameter 32 d M_BW [31:0] $end
$var parameter 32 e LATENCY [31:0] $end
$upscope $end
$upscope $end
$upscope $end
$enddefinitions $end
#0
$dumpvars
0!
1"
0#
1$
bx %
x&
x'
x(
bx )
1*
b0 +
0,
1-
bx .
bx /
x0
x1
x2
bx 3
14
b0 5
06
07
18
bx 9
bx :
bx ;
x<
bx =
x>
x?
bx @
bx A
xB
xC
xD
xE
xF
xG
bx H
bx I
xJ
bx K
bx L
bx M
b0xxx N
b0 O
0P
bzxxxxxxxx Q
bzxxxxxxxx R
xS
bx T
bx U
bx V
bx W
bx X
bx Y
bx Z
bx [
bx \
bx ]
b101 ^
b101 _
b1000 `
b1000 a
b1000 b
b10101 c
b10000 d
b11 e
$end
#1000
0"
0$
b0 %
0&
0'
0(
b0 )
0-
b0 .
b0 /
00
01
02
b0 3
06
08
b0 9
b0 :
b0 ;
0<
b0 =
0>
0?
b0 @
b0 A
0B
0C
0D
0E
0F
0G
b0 H
b0 I
0J
b0 K
b0 L
b0 M
b0 N
b0 O
bz00000000 Q
bz00000000 R
0S
b0 T
b0 U
b0 V
bx0000000000000000 W
b0 X
b0 Y
b0 Z
b11001 [
#3000
1"
1$
1-
18
#5000
1!
1#
b1000 %
1&
1(
b100 )
1,
b1000 /
10
12
b100 3
06
17
b10 =
0>
0?
b10 @
b100 A
0B
0C
0D
0E
0F
0G
b0 H
b0 I
b0 K
b0 L
b0 M
b0 V
b101 \
b101 ]
#10000
0!
0#
0,
07
#15000
1!
1#
1'
1,
11
06
17
1>
0?
1B
0C
0D
b100 H
b0 K
b0 L
b0 M
b0 V
b101 \
b101 ]
#20000
0!
0#
0,
07
#25000
1!
1#
0&
0'
1,
00
01
06
17
b100 :
0>
0?
b0 @
b0 A
0B
0C
0D
0E
0F
0G
b100 H
b0 I
b100 K
b0 L
b0 M
b0 O
bz00000100 Q
b0 V
bx0000000000000000 W
b101 \
b101 ]
#30000
0!
0#
0,
07
#35000
1!
1#
1,
17
b100 K
b0 L
b0 M
b0 V
b101 \
b101 ]
#40000
0!
0#
0,
07
#45000
1!
1#
b100 %
1&
b1 )
1,
b100 /
10
b1 3
06
17
b1 =
0>
0?
b1 @
b1 A
0B
0C
0D
0E
0F
0G
b100 H
b0 I
0J
b100 K
b0 L
b0 M
b0 V
b101 \
b101 ]
#50000
0!
0#
0,
07
#55000
1!
1#
1'
1,
11
06
17
1>
0?
0B
1C
0D
1J
b100 K
b0 L
b0 M
b0 V
b101 \
b101 ]
#60000
0!
0#
0,
07
#65000
1!
1#
0&
0'
1,
00
01
06
17
1<
0>
0?
b0 @
b0 A
0B
0C
0D
0E
0F
0G
b100 H
b0 I
1J
b100 K
b0 L
b1 M
b0 O
b0 V
b101 \
b101 ]
#70000
0!
0#
0,
07
#75000
1!
1#
1,
17
b100 K
b0 L
b1 M
b10 U
b10 V
bx0000000000000000 X
bx Y
b11001 [
b101 \
b101 ]
#80000
0!
0#
0,
07
#85000
1!
1#
b0 %
1&
b10 )
1,
bx .
b0 /
10
b10 3
06
17
bx 9
b0 =
0>
0?
b0 @
b10 A
b100 H
b0 I
b100 K
b0 L
b1 M
1S
bx T
b110 U
b110 V
bx0000000000000000 X
bx Z
b101 \
b101 ]
#90000
0!
0#
0,
07
#95000
1!
1#
1'
1,
11
06
17
1>
0?
0B
0C
1D
b10 I
b100 K
b0 L
b1 M
b110 V
bx0000000000000000 X
bx Z
b101 \
b101 ]
#100000
0!
0#
0,
07
#105000
1!
1#
0&
0'
1,
00
01
06
17
b10 ;
0>
0?
b0 @
b0 A
0B
0C
0D
b100 H
b10 I
b100 K
b10 L
b1 M
b0 O
bz00000010 R
b110 V
bx0000000000001000 W
bx0000000000000000 X
bx Z
b101 \
b101 ]
#110000
0!
0#
0,
07
#115000
1!
1#
1,
17
b100 K
b10 L
b1 M
b110 V
bx0000000000001000 X
bx Y
bx Z
b11001 [
b101 \
b101 ]
#120000
0!
0#
0,
07
#125000
1!
1#
b1000 %
1&
0(
1,
b1000 /
10
02
06
17
b10 =
0>
0?
b10 @
b0 A
0B
0C
0D
0E
0F
0G
b100 K
b10 L
b1 M
b110 V
bx0000000000001000 X
bx Z
b101 \
b101 ]
#130000
0!
0#
0,
07
#135000
1!
1#
1'
b100 +
1,
11
b100 5
06
17
0>
1?
1E
0F
0G
b100 K
b10 L
b1 M
b100 N
b100 O
b110 V
bx0000000000001000 X
bx Z
b101 \
b101 ]
#140000
0!
0#
0,
07
#145000
1!
1#
0&
0'
b0 +
1,
00
01
b0 5
06
17
0>
0?
b0 @
b0 A
0B
0C
0D
0E
0F
0G
b100 K
b10 L
b1 M
b0 N
b0 O
b110 V
bx0000000000001000 X
bx Z
b101 \
b101 ]
#150000
0!
0#
0,
07
#155000
1!
1#
1,
17
b100 K
b10 L
b1 M
b110 V
bx0000000000001000 X
bx Z
b101 \
b101 ]
#160000
0!
0#
0,
07
#165000
1!
1#
b100 %
1&
1,
b100 /
10
06
17
b1 =
0>
0?
b1 @
b0 A
0B
0C
0D
0E
0F
0G
b100 K
b10 L
b1 M
b110 V
bx0000000000001000 X
bx Z
b101 \
b101 ]
#170000
0!
0#
0,
07
#175000
1!
1#
1'
b1 +
1,
11
b1 5
06
17
0>
1?
0E
1F
0G
b100 K
b10 L
b1 M
b10 N
b1 O
b110 V
bx0000000000001000 X
bx Z
b101 \
b101 ]
#180000
0!
0#
0,
07
#185000
1!
1#
0&
0'
b0 +
1,
00
01
b0 5
06
17
0>
0?
b0 @
b0 A
0B
0C
0D
0E
0F
0G
b100 K
b10 L
b1 M
b0 N
b0 O
b110 V
bx0000000000001000 X
bx Z
b101 \
b101 ]
#190000
0!
0#
0,
07
#195000
1!
1#
1,
17
b100 K
b10 L
b1 M
b110 V
bx0000000000001000 X
bx Z
b101 \
b101 ]
#200000
0!
0#
0,
07
#205000
1!
1#
b0 %
1&
1,
b0 /
10
06
17
b0 =
0>
0?
b0 @
b0 A
b100 K
b10 L
b1 M
b110 V
bx0000000000001000 X
bx Z
b101 \
b101 ]
#210000
0!
0#
0,
07
#215000
1!
1#
1'
b10 +
1,
11
b10 5
06
17
0>
1?
0E
0F
1G
b100 K
b10 L
b1 M
b1 N
b10 O
b110 V
bx0000000000001000 X
bx Z
b101 \
b101 ]
#220000
0!
0#
0,
07
#225000
1!
1#
0&
0'
b0 +
1,
00
01
b0 5
06
17
0>
0?
b0 @
b0 A
0E
0F
0G
b100 K
b10 L
b1 M
b0 N
b0 O
b110 V
bx0000000000001000 X
bx Z
b101 \
b101 ]
#230000
0!
0#
0,
07
#235000
1!
1#
1,
17
b100 K
b10 L
b1 M
b110 V
bx0000000000001000 X
bx Z
b101 \
b101 ]
#240000
0!
0#
0,
07
#245000
1!
1#
1,
17
b100 K
b10 L
b1 M
b110 V
bx0000000000001000 X
bx Z
b101 \
b101 ]
#250000
0!
0#
0,
07
#255000
1!
1#
1,
17
b100 K
b10 L
b1 M
b110 V
bx0000000000001000 X
bx Z
b101 \
b101 ]
#260000
0!
0#
0,
07
#265000
1!
1#
1,
17
b100 K
b10 L
b1 M
b110 V
bx0000000000001000 X
bx Z
b101 \
b101 ]
#270000
0!
0#
0,
07
#275000
1!
1#
1,
17
b100 K
b10 L
b1 M
b110 V
bx0000000000001000 X
bx Z
b101 \
b101 ]
#280000
0!
0#
0,
07
#285000
1!
1#
1,
17
b100 K
b10 L
b1 M
b110 V
bx0000000000001000 X
bx Z
b101 \
b101 ]
#290000
0!
0#
0,
07
#295000
1!
1#
1,
17
b100 K
b10 L
b1 M
b110 V
bx0000000000001000 X
bx Z
b101 \
b101 ]
#300000
0!
0#
0,
07
#305000
1!
1#
1,
17
b100 K
b10 L
b1 M
b110 V
bx0000000000001000 X
bx Z
b101 \
b101 ]
#310000
0!
0#
0,
07
#315000
1!
1#
1,
17
b100 K
b10 L
b1 M
b110 V
bx0000000000001000 X
bx Z
b101 \
b101 ]
#320000
0!
0#
0,
07
#325000
1!
1#
1,
17
b100 K
b10 L
b1 M
b110 V
bx0000000000001000 X
bx Z
b101 \
b101 ]
#330000
0!
0#
0,
07
#335000
1!
1#
1,
17
b100 K
b10 L
b1 M
b110 V
bx0000000000001000 X
bx Z
b101 \
b101 ]
#340000
0!
0#
0,
07
#345000
1!
1#
1,
17
b100 K
b10 L
b1 M
b110 V
bx0000000000001000 X
bx Z
b101 \
b101 ]
#350000
0!
0#
0,
07
#355000
1!
1#
1,
17
b100 K
b10 L
b1 M
b110 V
bx0000000000001000 X
bx Z
b101 \
b101 ]
#360000
0!
0#
0,
07
#365000
1!
1#
1,
17
b100 K
b10 L
b1 M
b110 V
bx0000000000001000 X
bx Z
b101 \
b101 ]
#370000
0!
0#
0,
07
#375000
1!
1#
1,
17
b100 K
b10 L
b1 M
b110 V
bx0000000000001000 X
bx Z
b101 \
b101 ]
#380000
0!
0#
0,
07
#385000
1!
1#
1,
17
b100 K
b10 L
b1 M
b110 V
bx0000000000001000 X
bx Z
b101 \
b101 ]
#390000
0!
0#
0,
07
#395000
1!
1#
1,
17
b100 K
b10 L
b1 M
b110 V
bx0000000000001000 X
bx Z
b101 \
b101 ]
#400000
0!
0#
0,
07
#405000
1!
1#
1,
17
b100 K
b10 L
b1 M
b110 V
bx0000000000001000 X
bx Z
b101 \
b101 ]
#410000
0!
0#
0,
07
#415000
1!
1#
1,
17
b100 K
b10 L
b1 M
b110 V
bx0000000000001000 X
bx Z
b101 \
b101 ]
#420000
0!
0#
0,
07
#425000
1!
1#
1,
17
b100 K
b10 L
b1 M
b110 V
bx0000000000001000 X
bx Z
b101 \
b101 ]
#430000
0!
0#
0,
07
#435000
1!
1#
1,
17
b100 K
b10 L
b1 M
b110 V
bx0000000000001000 X
bx Z
b101 \
b101 ]
#440000
0!
0#
0,
07
#445000
1!
1#
1,
17
b100 K
b10 L
b1 M
b110 V
bx0000000000001000 X
bx Z
b101 \
b101 ]
#450000
0!
0#
0,
07
#455000
1!
1#
1,
17
b100 K
b10 L
b1 M
b110 V
bx0000000000001000 X
bx Z
b101 \
b101 ]
#460000
0!
0#
0,
07
#465000
1!
1#
1,
17
b100 K
b10 L
b1 M
b110 V
bx0000000000001000 X
bx Z
b101 \
b101 ]
#470000
0!
0#
0,
07
#475000
1!
1#
1,
17
b100 K
b10 L
b1 M
b110 V
bx0000000000001000 X
bx Z
b101 \
b101 ]
#480000
0!
0#
0,
07
#485000
1!
1#
1,
17
b100 K
b10 L
b1 M
b110 V
bx0000000000001000 X
bx Z
b101 \
b101 ]
#490000
0!
0#
0,
07
#495000
1!
1#
1,
17
b100 K
b10 L
b1 M
b110 V
bx0000000000001000 X
bx Z
b101 \
b101 ]
#500000
0!
0#
0,
07
#505000
1!
1#
1,
17
b100 K
b10 L
b1 M
b110 V
bx0000000000001000 X
bx Z
b101 \
b101 ]
#510000
0!
0#
0,
07
#515000
1!
1#
1,
17
b100 K
b10 L
b1 M
b110 V
bx0000000000001000 X
bx Z
b101 \
b101 ]
#520000
0!
0#
0,
07
#525000
1!
1#
1,
17
b100 K
b10 L
b1 M
b110 V
bx0000000000001000 X
bx Z
b101 \
b101 ]
#530000
0!
0#
0,
07
#535000
1!
1#
1,
17
b100 K
b10 L
b1 M
b110 V
bx0000000000001000 X
bx Z
b101 \
b101 ]
#540000
0!
0#
0,
07
#545000
1!
1#
1,
17
b100 K
b10 L
b1 M
b110 V
bx0000000000001000 X
bx Z
b101 \
b101 ]
#550000
0!
0#
0,
07
#555000
1!
1#
1,
17
b100 K
b10 L
b1 M
b110 V
bx0000000000001000 X
bx Z
b101 \
b101 ]
#560000
0!
0#
0,
07
#565000
1!
1#
1,
17
b100 K
b10 L
b1 M
b110 V
bx0000000000001000 X
bx Z
b101 \
b101 ]
#570000
0!
0#
0,
07
#575000
1!
1#
1,
17
b100 K
b10 L
b1 M
b110 V
bx0000000000001000 X
bx Z
b101 \
b101 ]
#580000
0!
0#
0,
07
#585000
1!
1#
1,
17
b100 K
b10 L
b1 M
b110 V
bx0000000000001000 X
bx Z
b101 \
b101 ]
#590000
0!
0#
0,
07
#595000
1!
1#
1,
17
b100 K
b10 L
b1 M
b110 V
bx0000000000001000 X
bx Z
b101 \
b101 ]
#600000
0!
0#
0,
07
#605000
1!
1#
1,
17
b100 K
b10 L
b1 M
b110 V
bx0000000000001000 X
bx Z
b101 \
b101 ]
#610000
0!
0#
0,
07
#615000
1!
1#
1,
17
b100 K
b10 L
b1 M
b110 V
bx0000000000001000 X
bx Z
b101 \
b101 ]
#620000
0!
0#
0,
07
#625000
1!
1#
1,
17
b100 K
b10 L
b1 M
b110 V
bx0000000000001000 X
bx Z
b101 \
b101 ]
#630000
0!
0#
0,
07
#635000
1!
1#
1,
17
b100 K
b10 L
b1 M
b110 V
bx0000000000001000 X
bx Z
b101 \
b101 ]
#640000
0!
0#
0,
07
#645000
1!
1#
1,
17
b100 K
b10 L
b1 M
b110 V
bx0000000000001000 X
bx Z
b101 \
b101 ]
#650000
0!
0#
0,
07
#655000
1!
1#
1,
17
b100 K
b10 L
b1 M
b110 V
bx0000000000001000 X
bx Z
b101 \
b101 ]
#660000
0!
0#
0,
07
#665000
1!
1#
1,
17
b100 K
b10 L
b1 M
b110 V
bx0000000000001000 X
bx Z
b101 \
b101 ]
#670000
0!
0#
0,
07
#675000
1!
1#
1,
17
b100 K
b10 L
b1 M
b110 V
bx0000000000001000 X
bx Z
b101 \
b101 ]
#680000
0!
0#
0,
07
#685000
1!
1#
1,
17
b100 K
b10 L
b1 M
b110 V
bx0000000000001000 X
bx Z
b101 \
b101 ]
#690000
0!
0#
0,
07
#695000
1!
1#
1,
17
b100 K
b10 L
b1 M
b110 V
bx0000000000001000 X
bx Z
b101 \
b101 ]
#700000
0!
0#
0,
07
#705000
1!
1#
1,
17
b100 K
b10 L
b1 M
b110 V
bx0000000000001000 X
bx Z
b101 \
b101 ]
#710000
0!
0#
0,
07
#715000
1!
1#
1,
17
b100 K
b10 L
b1 M
b110 V
bx0000000000001000 X
bx Z
b101 \
b101 ]
#720000
0!
0#
0,
07
#725000
1!
1#
1,
17
b100 K
b10 L
b1 M
b110 V
bx0000000000001000 X
bx Z
b101 \
b101 ]
#730000
0!
0#
0,
07
#735000
1!
1#
1,
17
b100 K
b10 L
b1 M
b110 V
bx0000000000001000 X
bx Z
b101 \
b101 ]
#740000
0!
0#
0,
07
#745000
1!
1#
1,
17
b100 K
b10 L
b1 M
b110 V
bx0000000000001000 X
bx Z
b101 \
b101 ]
#750000
0!
0#
0,
07
#755000
1!
1#
1,
17
b100 K
b10 L
b1 M
b110 V
bx0000000000001000 X
bx Z
b101 \
b101 ]
#760000
0!
0#
0,
07
#765000
1!
1#
1,
17
b100 K
b10 L
b1 M
b110 V
bx0000000000001000 X
bx Z
b101 \
b101 ]
#770000
0!
0#
0,
07
#775000
1!
1#
1,
17
b100 K
b10 L
b1 M
b110 V
bx0000000000001000 X
bx Z
b101 \
b101 ]
#780000
0!
0#
0,
07
#785000
1!
1#
1,
17
b100 K
b10 L
b1 M
b110 V
bx0000000000001000 X
bx Z
b101 \
b101 ]
#790000
0!
0#
0,
07
#795000
1!
1#
1,
17
b100 K
b10 L
b1 M
b110 V
bx0000000000001000 X
bx Z
b101 \
b101 ]
#800000
0!
0#
0,
07
#805000
1!
1#
1,
17
b100 K
b10 L
b1 M
b110 V
bx0000000000001000 X
bx Z
b101 \
b101 ]
#810000
0!
0#
0,
07
#815000
1!
1#
1,
17
b100 K
b10 L
b1 M
b110 V
bx0000000000001000 X
bx Z
b101 \
b101 ]
#820000
0!
0#
0,
07
#825000
1!
1#
1,
17
b100 K
b10 L
b1 M
b110 V
bx0000000000001000 X
bx Z
b101 \
b101 ]
#830000
0!
0#
0,
07
#835000
1!
1#
1,
17
b100 K
b10 L
b1 M
b110 V
bx0000000000001000 X
bx Z
b101 \
b101 ]
#840000
0!
0#
0,
07
#845000
1!
1#
1,
17
b100 K
b10 L
b1 M
b110 V
bx0000000000001000 X
bx Z
b101 \
b101 ]
#850000
0!
0#
0,
07
#855000
1!
1#
1,
17
b100 K
b10 L
b1 M
b110 V
bx0000000000001000 X
bx Z
b101 \
b101 ]
#860000
0!
0#
0,
07
#865000
1!
1#
1,
17
b100 K
b10 L
b1 M
b110 V
bx0000000000001000 X
bx Z
b101 \
b101 ]
#870000
0!
0#
0,
07
#875000
1!
1#
1,
17
b100 K
b10 L
b1 M
b110 V
bx0000000000001000 X
bx Z
b101 \
b101 ]
#880000
0!
0#
0,
07
#885000
1!
1#
1,
17
b100 K
b10 L
b1 M
b110 V
bx0000000000001000 X
bx Z
b101 \
b101 ]
#890000
0!
0#
0,
07
#895000
1!
1#
1,
17
b100 K
b10 L
b1 M
b110 V
bx0000000000001000 X
bx Z
b101 \
b101 ]
#900000
0!
0#
0,
07
#905000
1!
1#
1,
17
b100 K
b10 L
b1 M
b110 V
bx0000000000001000 X
bx Z
b101 \
b101 ]
#910000
0!
0#
0,
07
#915000
1!
1#
1,
17
b100 K
b10 L
b1 M
b110 V
bx0000000000001000 X
bx Z
b101 \
b101 ]
#920000
0!
0#
0,
07
#925000
1!
1#
1,
17
b100 K
b10 L
b1 M
b110 V
bx0000000000001000 X
bx Z
b101 \
b101 ]
#930000
0!
0#
0,
07
#935000
1!
1#
1,
17
b100 K
b10 L
b1 M
b110 V
bx0000000000001000 X
bx Z
b101 \
b101 ]
#940000
0!
0#
0,
07
#945000
1!
1#
1,
17
b100 K
b10 L
b1 M
b110 V
bx0000000000001000 X
bx Z
b101 \
b101 ]
#950000
0!
0#
0,
07
#955000
1!
1#
1,
17
b100 K
b10 L
b1 M
b110 V
bx0000000000001000 X
bx Z
b101 \
b101 ]
#960000
0!
0#
0,
07
#965000
1!
1#
1,
17
b100 K
b10 L
b1 M
b110 V
bx0000000000001000 X
bx Z
b101 \
b101 ]
#970000
0!
0#
0,
07
#975000
1!
1#
1,
17
b100 K
b10 L
b1 M
b110 V
bx0000000000001000 X
bx Z
b101 \
b101 ]
#980000
0!
0#
0,
07
#985000
1!
1#
1,
17
b100 K
b10 L
b1 M
b110 V
bx0000000000001000 X
bx Z
b101 \
b101 ]
#990000
0!
0#
0,
07
#995000
1!
1#
1,
17
b100 K
b10 L
b1 M
b110 V
bx0000000000001000 X
bx Z
b101 \
b101 ]
